filename,width,height,class,xmin,ymin,xmax,ymax
02d1101b5943474254efd655948b7fd640830af5.png,582,618,arrow,377,24,383,36
02d1101b5943474254efd655948b7fd640830af5.png,582,618,arrow,362,97,370,109
02d1101b5943474254efd655948b7fd640830af5.png,582,618,arrow,19,175,23,190
02d1101b5943474254efd655948b7fd640830af5.png,582,618,arrow,19,325,23,338
02d1101b5943474254efd655948b7fd640830af5.png,582,618,arrow,19,341,24,357
02d1101b5943474254efd655948b7fd640830af5.png,582,618,arrow,192,372,197,386
02d1101b5943474254efd655948b7fd640830af5.png,582,618,arrow,19,442,23,457
02d1101b5943474254efd655948b7fd640830af5.png,582,618,arrow,163,435,174,444
02d1101b5943474254efd655948b7fd640830af5.png,582,618,arrow,239,389,244,404
02d1101b5943474254efd655948b7fd640830af5.png,582,618,arrow,239,442,243,458
02d1101b5943474254efd655948b7fd640830af5.png,582,618,arrow,537,499,553,504
02d1101b5943474254efd655948b7fd640830af5.png,582,618,arrow,436,500,452,504
02d1101b5943474254efd655948b7fd640830af5.png,582,618,arrow,419,500,434,504
02d1101b5943474254efd655948b7fd640830af5.png,582,618,arrow,200,500,215,504
02d1101b5943474254efd655948b7fd640830af5.png,582,618,arrow,183,500,198,504
02d1101b5943474254efd655948b7fd640830af5.png,582,618,arrow,129,500,144,504
02d1101b5943474254efd655948b7fd640830af5.png,582,618,arrow,82,600,98,604
02d1101b5943474254efd655948b7fd640830af5.png,582,618,arrow,537,600,553,604
062e2a26e728058fdb0aa7d36fbe35ba (1).jpg,564,798,arrow,129,248,143,251
062e2a26e728058fdb0aa7d36fbe35ba (1).jpg,564,798,arrow,188,248,200,251
062e2a26e728058fdb0aa7d36fbe35ba (1).jpg,564,798,arrow,202,248,215,251
062e2a26e728058fdb0aa7d36fbe35ba (1).jpg,564,798,arrow,308,248,321,251
062e2a26e728058fdb0aa7d36fbe35ba (1).jpg,564,798,arrow,322,248,336,251
062e2a26e728058fdb0aa7d36fbe35ba (1).jpg,564,798,arrow,429,248,442,251
062e2a26e728058fdb0aa7d36fbe35ba (1).jpg,564,798,arrow,52,286,55,299
062e2a26e728058fdb0aa7d36fbe35ba (1).jpg,564,798,arrow,87,322,91,336
062e2a26e728058fdb0aa7d36fbe35ba (1).jpg,564,798,arrow,245,310,248,322
062e2a26e728058fdb0aa7d36fbe35ba (1).jpg,564,798,arrow,245,322,248,333
062e2a26e728058fdb0aa7d36fbe35ba (1).jpg,564,798,arrow,177,367,191,369
062e2a26e728058fdb0aa7d36fbe35ba (1).jpg,564,798,arrow,210,367,224,369
062e2a26e728058fdb0aa7d36fbe35ba (1).jpg,564,798,arrow,458,388,464,400
062e2a26e728058fdb0aa7d36fbe35ba (1).jpg,564,798,arrow,422,460,428,473
062e2a26e728058fdb0aa7d36fbe35ba (1).jpg,564,798,arrow,88,418,91,429
062e2a26e728058fdb0aa7d36fbe35ba (1).jpg,564,798,arrow,88,431,91,443
062e2a26e728058fdb0aa7d36fbe35ba (1).jpg,564,798,arrow,88,513,91,527
062e2a26e728058fdb0aa7d36fbe35ba (1).jpg,564,798,arrow,88,528,91,541
062e2a26e728058fdb0aa7d36fbe35ba (1).jpg,564,798,arrow,52,562,55,575
062e2a26e728058fdb0aa7d36fbe35ba (1).jpg,564,798,arrow,88,562,91,575
062e2a26e728058fdb0aa7d36fbe35ba (1).jpg,564,798,arrow,156,528,158,538
062e2a26e728058fdb0aa7d36fbe35ba (1).jpg,564,798,arrow,156,538,158,551
062e2a26e728058fdb0aa7d36fbe35ba (1).jpg,564,798,arrow,130,601,140,604
062e2a26e728058fdb0aa7d36fbe35ba (1).jpg,564,798,arrow,163,601,176,604
062e2a26e728058fdb0aa7d36fbe35ba (1).jpg,564,798,arrow,177,601,190,604
062e2a26e728058fdb0aa7d36fbe35ba (1).jpg,564,798,arrow,210,601,224,604
062e2a26e728058fdb0aa7d36fbe35ba (1).jpg,564,798,arrow,226,601,239,604
062e2a26e728058fdb0aa7d36fbe35ba (1).jpg,564,798,arrow,284,601,297,604
062e2a26e728058fdb0aa7d36fbe35ba (1).jpg,564,798,arrow,129,640,141,643
062e2a26e728058fdb0aa7d36fbe35ba (1).jpg,564,798,arrow,501,640,515,643
062e2a26e728058fdb0aa7d36fbe35ba.jpg,564,798,arrow,129,248,141,251
062e2a26e728058fdb0aa7d36fbe35ba.jpg,564,798,arrow,189,248,200,251
062e2a26e728058fdb0aa7d36fbe35ba.jpg,564,798,arrow,201,248,215,251
062e2a26e728058fdb0aa7d36fbe35ba.jpg,564,798,arrow,307,248,321,251
062e2a26e728058fdb0aa7d36fbe35ba.jpg,564,798,arrow,322,248,335,251
062e2a26e728058fdb0aa7d36fbe35ba.jpg,564,798,arrow,430,248,442,251
062e2a26e728058fdb0aa7d36fbe35ba.jpg,564,798,arrow,52,286,55,298
062e2a26e728058fdb0aa7d36fbe35ba.jpg,564,798,arrow,88,323,91,335
062e2a26e728058fdb0aa7d36fbe35ba.jpg,564,798,arrow,245,310,248,322
062e2a26e728058fdb0aa7d36fbe35ba.jpg,564,798,arrow,245,323,248,333
062e2a26e728058fdb0aa7d36fbe35ba.jpg,564,798,arrow,177,367,190,369
062e2a26e728058fdb0aa7d36fbe35ba.jpg,564,798,arrow,211,367,224,369
062e2a26e728058fdb0aa7d36fbe35ba.jpg,564,798,arrow,458,388,464,399
062e2a26e728058fdb0aa7d36fbe35ba.jpg,564,798,arrow,421,461,428,473
062e2a26e728058fdb0aa7d36fbe35ba.jpg,564,798,arrow,88,417,91,430
062e2a26e728058fdb0aa7d36fbe35ba.jpg,564,798,arrow,88,431,91,444
062e2a26e728058fdb0aa7d36fbe35ba.jpg,564,798,arrow,88,514,91,526
062e2a26e728058fdb0aa7d36fbe35ba.jpg,564,798,arrow,88,563,90,574
062e2a26e728058fdb0aa7d36fbe35ba.jpg,564,798,arrow,52,561,55,575
062e2a26e728058fdb0aa7d36fbe35ba.jpg,564,798,arrow,155,528,158,539
062e2a26e728058fdb0aa7d36fbe35ba.jpg,564,798,arrow,155,539,158,551
062e2a26e728058fdb0aa7d36fbe35ba.jpg,564,798,arrow,88,528,91,540
062e2a26e728058fdb0aa7d36fbe35ba.jpg,564,798,arrow,129,601,142,604
062e2a26e728058fdb0aa7d36fbe35ba.jpg,564,798,arrow,129,640,142,643
062e2a26e728058fdb0aa7d36fbe35ba.jpg,564,798,arrow,162,601,176,604
062e2a26e728058fdb0aa7d36fbe35ba.jpg,564,798,arrow,177,601,190,604
062e2a26e728058fdb0aa7d36fbe35ba.jpg,564,798,arrow,212,601,224,604
062e2a26e728058fdb0aa7d36fbe35ba.jpg,564,798,arrow,226,601,238,604
062e2a26e728058fdb0aa7d36fbe35ba.jpg,564,798,arrow,284,601,297,604
062e2a26e728058fdb0aa7d36fbe35ba.jpg,564,798,arrow,502,640,514,643
09e5e47a329b695cd1f8b5c4c21e5f5c.jpg,564,798,arrow,270,279,282,281
09e5e47a329b695cd1f8b5c4c21e5f5c.jpg,564,798,arrow,295,281,307,284
09e5e47a329b695cd1f8b5c4c21e5f5c.jpg,564,798,arrow,270,301,282,304
09e5e47a329b695cd1f8b5c4c21e5f5c.jpg,564,798,arrow,276,301,290,304
09e5e47a329b695cd1f8b5c4c21e5f5c.jpg,564,798,arrow,313,331,323,339
09e5e47a329b695cd1f8b5c4c21e5f5c.jpg,564,798,arrow,282,352,293,359
09e5e47a329b695cd1f8b5c4c21e5f5c.jpg,564,798,arrow,288,357,300,362
09e5e47a329b695cd1f8b5c4c21e5f5c.jpg,564,798,arrow,268,385,279,388
09e5e47a329b695cd1f8b5c4c21e5f5c.jpg,564,798,arrow,287,390,300,393
09e5e47a329b695cd1f8b5c4c21e5f5c.jpg,564,798,arrow,292,399,297,409
09e5e47a329b695cd1f8b5c4c21e5f5c.jpg,564,798,arrow,258,414,261,427
09e5e47a329b695cd1f8b5c4c21e5f5c.jpg,564,798,arrow,241,424,249,432
09e5e47a329b695cd1f8b5c4c21e5f5c.jpg,564,798,arrow,525,358,528,372
09e5e47a329b695cd1f8b5c4c21e5f5c.jpg,564,798,arrow,525,503,528,517
09e5e47a329b695cd1f8b5c4c21e5f5c.jpg,564,798,arrow,495,453,498,465
09e5e47a329b695cd1f8b5c4c21e5f5c.jpg,564,798,arrow,495,503,498,517
09e5e47a329b695cd1f8b5c4c21e5f5c.jpg,564,798,arrow,348,455,351,467
09e5e47a329b695cd1f8b5c4c21e5f5c.jpg,564,798,arrow,343,476,346,487
09e5e47a329b695cd1f8b5c4c21e5f5c.jpg,564,798,arrow,361,478,364,488
09e5e47a329b695cd1f8b5c4c21e5f5c.jpg,564,798,arrow,358,505,360,517
09e5e47a329b695cd1f8b5c4c21e5f5c.jpg,564,798,arrow,291,472,297,479
09e5e47a329b695cd1f8b5c4c21e5f5c.jpg,564,798,arrow,277,477,281,489
09e5e47a329b695cd1f8b5c4c21e5f5c.jpg,564,798,arrow,241,494,247,505
09e5e47a329b695cd1f8b5c4c21e5f5c.jpg,564,798,arrow,192,472,195,484
09e5e47a329b695cd1f8b5c4c21e5f5c.jpg,564,798,arrow,196,504,199,517
09e5e47a329b695cd1f8b5c4c21e5f5c.jpg,564,798,arrow,162,460,166,473
09e5e47a329b695cd1f8b5c4c21e5f5c.jpg,564,798,arrow,167,482,171,494
09e5e47a329b695cd1f8b5c4c21e5f5c.jpg,564,798,arrow,115,585,127,588
09e5e47a329b695cd1f8b5c4c21e5f5c.jpg,564,798,arrow,255,585,268,588
09e5e47a329b695cd1f8b5c4c21e5f5c.jpg,564,798,arrow,270,585,283,588
09e5e47a329b695cd1f8b5c4c21e5f5c.jpg,564,798,arrow,410,585,423,588
0c4a9e00ee9b480e1afb13a0664faf85.jpg,564,798,arrow,98,215,113,218
0c4a9e00ee9b480e1afb13a0664faf85.jpg,564,798,arrow,273,215,287,218
0c4a9e00ee9b480e1afb13a0664faf85.jpg,564,798,arrow,129,246,141,249
0c4a9e00ee9b480e1afb13a0664faf85.jpg,564,798,arrow,244,246,256,249
0c4a9e00ee9b480e1afb13a0664faf85.jpg,564,798,arrow,282,288,292,295
0c4a9e00ee9b480e1afb13a0664faf85.jpg,564,798,arrow,42,285,45,296
0c4a9e00ee9b480e1afb13a0664faf85.jpg,564,798,arrow,65,315,68,328
0c4a9e00ee9b480e1afb13a0664faf85.jpg,564,798,arrow,392,215,403,218
0c4a9e00ee9b480e1afb13a0664faf85.jpg,564,798,arrow,467,215,481,218
0c4a9e00ee9b480e1afb13a0664faf85.jpg,564,798,arrow,470,240,481,243
0c4a9e00ee9b480e1afb13a0664faf85.jpg,564,798,arrow,458,240,470,243
0c4a9e00ee9b480e1afb13a0664faf85.jpg,564,798,arrow,447,279,459,287
0c4a9e00ee9b480e1afb13a0664faf85.jpg,564,798,arrow,444,330,456,336
0c4a9e00ee9b480e1afb13a0664faf85.jpg,564,798,arrow,335,343,338,355
0c4a9e00ee9b480e1afb13a0664faf85.jpg,564,798,arrow,335,407,338,419
0c4a9e00ee9b480e1afb13a0664faf85.jpg,564,798,arrow,363,367,366,380
0c4a9e00ee9b480e1afb13a0664faf85.jpg,564,798,arrow,363,382,366,395
0c4a9e00ee9b480e1afb13a0664faf85.jpg,564,798,arrow,451,374,463,377
0c4a9e00ee9b480e1afb13a0664faf85.jpg,564,798,arrow,482,374,494,377
0c4a9e00ee9b480e1afb13a0664faf85.jpg,564,798,arrow,530,347,532,359
0c4a9e00ee9b480e1afb13a0664faf85.jpg,564,798,arrow,466,406,477,411
0c4a9e00ee9b480e1afb13a0664faf85.jpg,564,798,arrow,530,402,532,415
0c4a9e00ee9b480e1afb13a0664faf85.jpg,564,798,arrow,450,448,457,461
0c4a9e00ee9b480e1afb13a0664faf85.jpg,564,798,arrow,65,434,68,447
0c4a9e00ee9b480e1afb13a0664faf85.jpg,564,798,arrow,42,464,45,477
1.jpg,1342,1071,arrow,85,171,91,187
1.jpg,1342,1071,arrow,85,192,91,208
1.jpg,1342,1071,arrow,278,210,285,225
1.jpg,1342,1071,arrow,295,123,311,130
1.jpg,1342,1071,arrow,329,115,344,122
1.jpg,1342,1071,arrow,329,123,344,130
1.jpg,1342,1071,arrow,366,115,380,122
1.jpg,1342,1071,arrow,402,155,409,169
1.jpg,1342,1071,arrow,402,184,409,197
1.jpg,1342,1071,arrow,245,350,257,357
1.jpg,1342,1071,arrow,260,350,273,357
1.jpg,1342,1071,arrow,244,371,257,377
1.jpg,1342,1071,arrow,137,370,151,377
1.jpg,1342,1071,arrow,137,593,152,599
1.jpg,1342,1071,arrow,86,651,92,664
1.jpg,1342,1071,arrow,366,593,380,599
1.jpg,1342,1071,arrow,401,651,408,665
1.jpg,1342,1071,arrow,602,570,615,577
1.jpg,1342,1071,arrow,745,570,760,577
1.jpg,1342,1071,arrow,645,601,661,607
1.jpg,1342,1071,arrow,601,600,615,607
1.jpg,1342,1071,arrow,545,666,552,680
1.jpg,1342,1071,arrow,545,726,552,741
1.jpg,1342,1071,arrow,401,725,407,740
1.jpg,1342,1071,arrow,940,579,955,586
1.jpg,1342,1071,arrow,984,579,1000,586
1.jpg,1342,1071,arrow,976,613,992,619
1.jpg,1342,1071,arrow,1009,613,1025,619
1.jpg,1342,1071,arrow,1203,651,1210,663
1.jpg,1342,1071,arrow,1203,674,1210,688
1.jpg,1342,1071,arrow,1253,651,1261,665
1.jpg,1342,1071,arrow,1253,777,1260,792
1.jpg,1342,1071,arrow,1130,803,1139,815
1.jpg,1342,1071,arrow,643,770,650,786
1.jpg,1342,1071,arrow,615,799,624,814
1.jpg,1342,1071,arrow,708,821,720,834
1.jpg,1342,1071,arrow,86,818,92,832
1.jpg,1342,1071,arrow,146,808,159,819
1.jpg,1342,1071,arrow,1145,846,1160,853
1.jpg,1342,1071,arrow,1169,846,1183,853
1cda78278c306999bcfda365ce44a93f.jpg,595,463,arrow,110,15,131,20
1cda78278c306999bcfda365ce44a93f.jpg,595,463,arrow,276,15,296,20
1cda78278c306999bcfda365ce44a93f.jpg,595,463,arrow,110,44,131,49
1cda78278c306999bcfda365ce44a93f.jpg,595,463,arrow,145,44,165,49
1cda78278c306999bcfda365ce44a93f.jpg,595,463,arrow,59,68,64,86
1cda78278c306999bcfda365ce44a93f.jpg,595,463,arrow,59,103,64,122
1cda78278c306999bcfda365ce44a93f.jpg,595,463,arrow,67,154,85,159
1cda78278c306999bcfda365ce44a93f.jpg,595,463,arrow,117,144,133,155
1cda78278c306999bcfda365ce44a93f.jpg,595,463,arrow,183,134,197,144
1cda78278c306999bcfda365ce44a93f.jpg,595,463,arrow,198,90,215,101
1cda78278c306999bcfda365ce44a93f.jpg,595,463,arrow,218,93,233,108
1cda78278c306999bcfda365ce44a93f.jpg,595,463,arrow,255,130,270,145
1cda78278c306999bcfda365ce44a93f.jpg,595,463,arrow,446,18,466,23
1cda78278c306999bcfda365ce44a93f.jpg,595,463,arrow,464,18,483,23
1cda78278c306999bcfda365ce44a93f.jpg,595,463,arrow,553,67,558,86
1cda78278c306999bcfda365ce44a93f.jpg,595,463,arrow,553,84,558,102
1cda78278c306999bcfda365ce44a93f.jpg,595,463,arrow,579,68,584,87
1cda78278c306999bcfda365ce44a93f.jpg,595,463,arrow,552,104,557,125
1cda78278c306999bcfda365ce44a93f.jpg,595,463,arrow,552,157,557,178
1cda78278c306999bcfda365ce44a93f.jpg,595,463,arrow,301,180,313,193
1cda78278c306999bcfda365ce44a93f.jpg,595,463,arrow,110,192,131,196
1cda78278c306999bcfda365ce44a93f.jpg,595,463,arrow,165,192,184,196
1cda78278c306999bcfda365ce44a93f.jpg,595,463,arrow,33,273,38,292
1cda78278c306999bcfda365ce44a93f.jpg,595,463,arrow,219,318,238,330
1cda78278c306999bcfda365ce44a93f.jpg,595,463,arrow,297,275,314,284
1cda78278c306999bcfda365ce44a93f.jpg,595,463,arrow,324,239,342,248
1cda78278c306999bcfda365ce44a93f.jpg,595,463,arrow,373,234,392,239
1cda78278c306999bcfda365ce44a93f.jpg,595,463,arrow,423,234,445,239
1cda78278c306999bcfda365ce44a93f.jpg,595,463,arrow,444,285,460,297
1cda78278c306999bcfda365ce44a93f.jpg,595,463,arrow,525,310,530,329
1cda78278c306999bcfda365ce44a93f.jpg,595,463,arrow,525,327,531,346
1cda78278c306999bcfda365ce44a93f.jpg,595,463,arrow,579,325,584,345
1cda78278c306999bcfda365ce44a93f.jpg,595,463,arrow,462,371,483,375
1cda78278c306999bcfda365ce44a93f.jpg,595,463,arrow,428,371,447,375
1cda78278c306999bcfda365ce44a93f.jpg,595,463,arrow,407,371,427,375
1cda78278c306999bcfda365ce44a93f.jpg,595,463,arrow,373,371,391,375
1cda78278c306999bcfda365ce44a93f.jpg,595,463,arrow,351,371,371,375
1cda78278c306999bcfda365ce44a93f.jpg,595,463,arrow,316,372,337,375
1cda78278c306999bcfda365ce44a93f.jpg,595,463,arrow,297,423,319,428
1cda78278c306999bcfda365ce44a93f.jpg,595,463,arrow,462,423,483,428
1cda78278c306999bcfda365ce44a93f.jpg,595,463,arrow,462,451,483,456
1cda78278c306999bcfda365ce44a93f.jpg,595,463,arrow,243,422,258,437
1cda78278c306999bcfda365ce44a93f.jpg,595,463,arrow,207,385,220,399
1cda78278c306999bcfda365ce44a93f.jpg,595,463,arrow,110,451,134,456
1cda78278c306999bcfda365ce44a93f.jpg,595,463,arrow,33,327,38,345
2165cf62b4527efa2f1e7f835c858e6e.jpg,564,798,arrow,132,298,148,305
2165cf62b4527efa2f1e7f835c858e6e.jpg,564,798,arrow,418,264,430,271
2165cf62b4527efa2f1e7f835c858e6e.jpg,564,798,arrow,324,338,336,341
2165cf62b4527efa2f1e7f835c858e6e.jpg,564,798,arrow,475,344,478,356
2165cf62b4527efa2f1e7f835c858e6e.jpg,564,798,arrow,475,355,479,367
2165cf62b4527efa2f1e7f835c858e6e.jpg,564,798,arrow,513,336,516,349
2165cf62b4527efa2f1e7f835c858e6e.jpg,564,798,arrow,513,362,516,375
2165cf62b4527efa2f1e7f835c858e6e.jpg,564,798,arrow,244,336,255,342
2165cf62b4527efa2f1e7f835c858e6e.jpg,564,798,arrow,305,369,316,375
2165cf62b4527efa2f1e7f835c858e6e.jpg,564,798,arrow,222,369,236,374
29137b56627d1c63f9739a9d4ddeb0bd6e44ce80.jpg,809,612,arrow,137,50,160,55
29137b56627d1c63f9739a9d4ddeb0bd6e44ce80.jpg,809,612,arrow,269,50,294,54
29137b56627d1c63f9739a9d4ddeb0bd6e44ce80.jpg,809,612,arrow,171,95,195,100
29137b56627d1c63f9739a9d4ddeb0bd6e44ce80.jpg,809,612,arrow,213,95,238,100
29137b56627d1c63f9739a9d4ddeb0bd6e44ce80.jpg,809,612,arrow,91,95,115,100
29137b56627d1c63f9739a9d4ddeb0bd6e44ce80.jpg,809,612,arrow,113,95,135,100
29137b56627d1c63f9739a9d4ddeb0bd6e44ce80.jpg,809,612,arrow,54,167,59,189
29137b56627d1c63f9739a9d4ddeb0bd6e44ce80.jpg,809,612,arrow,496,50,521,55
29137b56627d1c63f9739a9d4ddeb0bd6e44ce80.jpg,809,612,arrow,524,50,547,55
29137b56627d1c63f9739a9d4ddeb0bd6e44ce80.jpg,809,612,arrow,658,50,680,55
29137b56627d1c63f9739a9d4ddeb0bd6e44ce80.jpg,809,612,arrow,758,87,764,109
29137b56627d1c63f9739a9d4ddeb0bd6e44ce80.jpg,809,612,arrow,758,107,764,130
29137b56627d1c63f9739a9d4ddeb0bd6e44ce80.jpg,809,612,arrow,758,133,764,159
29137b56627d1c63f9739a9d4ddeb0bd6e44ce80.jpg,809,612,arrow,759,219,764,244
29137b56627d1c63f9739a9d4ddeb0bd6e44ce80.jpg,809,612,arrow,759,247,764,273
29137b56627d1c63f9739a9d4ddeb0bd6e44ce80.jpg,809,612,arrow,54,436,59,460
29137b56627d1c63f9739a9d4ddeb0bd6e44ce80.jpg,809,612,arrow,495,421,511,440
29137b56627d1c63f9739a9d4ddeb0bd6e44ce80.jpg,809,612,arrow,759,357,763,380
29137b56627d1c63f9739a9d4ddeb0bd6e44ce80.jpg,809,612,arrow,759,383,763,407
29137b56627d1c63f9739a9d4ddeb0bd6e44ce80.jpg,809,612,arrow,759,470,764,494
29137b56627d1c63f9739a9d4ddeb0bd6e44ce80.jpg,809,612,arrow,92,539,114,544
29137b56627d1c63f9739a9d4ddeb0bd6e44ce80.jpg,809,612,arrow,111,539,134,544
2e0a81e04e1c70fd07b3b8b109dffe07.png,1653,2339,arrow,518,953,545,980
2e0a81e04e1c70fd07b3b8b109dffe07.png,1653,2339,arrow,715,892,753,903
2e0a81e04e1c70fd07b3b8b109dffe07.png,1653,2339,arrow,1226,994,1260,1013
2e0a81e04e1c70fd07b3b8b109dffe07.png,1653,2339,arrow,1433,1153,1440,1189
2e0a81e04e1c70fd07b3b8b109dffe07.png,1653,2339,arrow,1433,1303,1440,1340
2e0a81e04e1c70fd07b3b8b109dffe07.png,1653,2339,arrow,936,1134,969,1158
2e0a81e04e1c70fd07b3b8b109dffe07.png,1653,2339,arrow,948,1187,954,1226
2e0a81e04e1c70fd07b3b8b109dffe07.png,1653,2339,arrow,948,1267,954,1301
2e0a81e04e1c70fd07b3b8b109dffe07.png,1653,2339,arrow,785,1268,802,1297
2e0a81e04e1c70fd07b3b8b109dffe07.png,1653,2339,arrow,754,1364,793,1370
2e0a81e04e1c70fd07b3b8b109dffe07.png,1653,2339,arrow,866,1364,905,1370
2e0a81e04e1c70fd07b3b8b109dffe07.png,1653,2339,arrow,1063,1393,1096,1413
2e0a81e04e1c70fd07b3b8b109dffe07.png,1653,2339,arrow,665,1335,696,1358
2e0a81e04e1c70fd07b3b8b109dffe07.png,1653,2339,arrow,537,1079,571,1099
2e0a81e04e1c70fd07b3b8b109dffe07.png,1653,2339,arrow,762,1096,786,1127
2e0a81e04e1c70fd07b3b8b109dffe07.png,1653,2339,arrow,828,1195,849,1228
2e0a81e04e1c70fd07b3b8b109dffe07.png,1653,2339,arrow,1089,1513,1116,1539
2e1c844ee4cf81c146a5156a56da8a53.png,1653,2339,arrow,706,648,736,671
2e1c844ee4cf81c146a5156a56da8a53.png,1653,2339,arrow,909,721,942,739
2e1c844ee4cf81c146a5156a56da8a53.png,1653,2339,arrow,781,790,815,808
2e1c844ee4cf81c146a5156a56da8a53.png,1653,2339,arrow,1423,766,1430,801
2e1c844ee4cf81c146a5156a56da8a53.png,1653,2339,arrow,692,1213,728,1236
2e1c844ee4cf81c146a5156a56da8a53.png,1653,2339,arrow,294,1317,301,1352
2e1c844ee4cf81c146a5156a56da8a53.png,1653,2339,arrow,1423,1280,1430,1316
2e1c844ee4cf81c146a5156a56da8a53.png,1653,2339,arrow,514,1491,545,1508
2e1c844ee4cf81c146a5156a56da8a53.png,1653,2339,arrow,758,1539,772,1571
2e1c844ee4cf81c146a5156a56da8a53.png,1653,2339,arrow,492,1747,518,1770
2e1c844ee4cf81c146a5156a56da8a53.png,1653,2339,arrow,535,1816,560,1842
2e1c844ee4cf81c146a5156a56da8a53.png,1653,2339,arrow,570,1782,593,1806
2e1c844ee4cf81c146a5156a56da8a53.png,1653,2339,arrow,294,1774,301,1812
2e1c844ee4cf81c146a5156a56da8a53.png,1653,2339,arrow,717,1712,741,1739
2e1c844ee4cf81c146a5156a56da8a53.png,1653,2339,arrow,609,1852,635,1876
2e1c844ee4cf81c146a5156a56da8a53.png,1653,2339,arrow,863,1815,901,1823
2e1c844ee4cf81c146a5156a56da8a53.png,1653,2339,arrow,1189,1673,1217,1699
2e1c844ee4cf81c146a5156a56da8a53.png,1653,2339,arrow,997,1398,1030,1418
2e1c844ee4cf81c146a5156a56da8a53.png,1653,2339,arrow,824,2061,861,2067
2e1c844ee4cf81c146a5156a56da8a53.png,1653,2339,arrow,564,2061,601,2067
4831781f82cb8b001fec4f7c9f9d848a.jpg,564,798,arrow,465,363,470,373
4831781f82cb8b001fec4f7c9f9d848a.jpg,564,798,arrow,385,346,390,358
4831781f82cb8b001fec4f7c9f9d848a.jpg,564,798,arrow,329,323,335,335
4831781f82cb8b001fec4f7c9f9d848a.jpg,564,798,arrow,466,403,477,407
4831781f82cb8b001fec4f7c9f9d848a.jpg,564,798,arrow,420,415,432,419
4831781f82cb8b001fec4f7c9f9d848a.jpg,564,798,arrow,245,359,253,369
4831781f82cb8b001fec4f7c9f9d848a.jpg,564,798,arrow,321,452,329,463
4831781f82cb8b001fec4f7c9f9d848a.jpg,564,798,arrow,239,488,245,498
4831781f82cb8b001fec4f7c9f9d848a.jpg,564,798,arrow,127,560,140,563
4831781f82cb8b001fec4f7c9f9d848a.jpg,564,798,arrow,435,560,448,563
5_11-12.jpg,1712,2208,arrow,685,293,717,299
5_11-12.jpg,1712,2208,arrow,404,397,430,420
5_11-12.jpg,1712,2208,arrow,724,451,744,461
5_11-12.jpg,1712,2208,arrow,840,506,851,524
5_11-12.jpg,1712,2208,arrow,758,414,772,427
5_11-12.jpg,1712,2208,arrow,623,573,637,597
5_11-12.jpg,1712,2208,arrow,975,554,993,575
5_11-12.jpg,1712,2208,arrow,1005,595,1025,600
5_11-12.jpg,1712,2208,arrow,907,628,921,655
5_11-12.jpg,1712,2208,arrow,528,645,549,649
5_11-12.jpg,1712,2208,arrow,933,712,939,739
5_11-12.jpg,1712,2208,arrow,934,742,941,772
5_11-12.jpg,1712,2208,arrow,907,827,921,853
5_11-12.jpg,1712,2208,arrow,1046,862,1062,876
5_11-12.jpg,1712,2208,arrow,619,686,631,698
5_11-12.jpg,1712,2208,arrow,589,761,620,767
5_11-12.jpg,1712,2208,arrow,682,763,713,768
5_11-12.jpg,1712,2208,arrow,594,791,612,796
5_11-12.jpg,1712,2208,arrow,481,761,500,767
5_11-12.jpg,1712,2208,arrow,457,809,473,820
5_11-12.jpg,1712,2208,arrow,537,844,549,856
5_11-12.jpg,1712,2208,arrow,647,860,663,869
5_11-12.jpg,1712,2208,arrow,548,905,560,919
5_11-12.jpg,1712,2208,arrow,790,879,802,901
5_11-12.jpg,1712,2208,arrow,1014,926,1024,940
5_11-12.jpg,1712,2208,arrow,838,1000,863,1015
5_11-12.jpg,1712,2208,arrow,742,978,746,1002
5_11-12.jpg,1712,2208,arrow,924,1052,952,1068
5_11-12.jpg,1712,2208,arrow,983,1385,992,1403
5_11-12.jpg,1712,2208,arrow,780,1319,790,1334
5_11-12.jpg,1712,2208,arrow,742,1311,753,1327
5_11-12.jpg,1712,2208,arrow,717,1303,723,1320
5_11-12.jpg,1712,2208,arrow,798,1405,807,1420
5_11-12.jpg,1712,2208,arrow,638,1353,643,1363
5_11-12.jpg,1712,2208,arrow,549,1556,568,1562
5_11-12.jpg,1712,2208,arrow,438,1525,442,1542
5_11-12.jpg,1712,2208,arrow,829,1644,846,1650
5_11-12.jpg,1712,2208,arrow,980,1662,989,1679
5_11-12.jpg,1712,2208,arrow,1017,1533,1021,1551
5_11-12.jpg,1712,2208,arrow,1018,1515,1021,1530
5_11-12.jpg,1712,2208,arrow,1055,1533,1059,1550
5_11-12.jpg,1712,2208,arrow,888,1494,906,1499
5_11-12.jpg,1712,2208,arrow,1051,1762,1056,1780
5_11-12.jpg,1712,2208,arrow,935,1847,945,1860
5_11-12.jpg,1712,2208,arrow,745,1803,751,1820
5_11-12.jpg,1712,2208,arrow,729,1897,733,1915
5_11-12.jpg,1712,2208,arrow,625,1826,630,1845
5_11-12.jpg,1712,2208,arrow,434,1801,438,1820
5_11-12.jpg,1712,2208,arrow,433,1870,437,1888
5_11-12.jpg,1712,2208,arrow,725,1956,744,1960
5_11-12.jpg,1712,2208,arrow,790,1994,808,1999
5_11-12.jpg,1712,2208,arrow,620,1954,638,1958
5_11-12.jpg,1712,2208,arrow,639,1992,656,1996
5_11-12.jpg,1712,2208,arrow,704,2037,722,2040
5_11-12.jpg,1712,2208,arrow,897,2076,916,2080
5_11-12.jpg,1712,2208,arrow,528,2071,545,2075
5_11-12.jpg,1712,2208,arrow,528,2034,544,2038
7.11.png,5864,3476,arrow,451,1140,568,1274
7.11.png,5864,3476,arrow,1141,1401,1275,1509
7.11.png,5864,3476,arrow,3585,1393,3726,1492
7.11.png,5864,3476,arrow,3854,1582,4008,1692
7.11.png,5864,3476,arrow,4308,1155,4445,1261
7.11.png,5864,3476,arrow,5235,1038,5268,1224
7.11.png,5864,3476,arrow,5703,1232,5733,1410
7.11.png,5864,3476,arrow,5235,1341,5268,1522
7.11.png,5864,3476,arrow,5235,1532,5268,1700
7.11.png,5864,3476,arrow,5702,1639,5735,1824
7.11.png,5864,3476,arrow,5236,1832,5270,2004
7.11.png,5864,3476,arrow,4294,1824,4392,1953
7.11.png,5864,3476,arrow,876,1607,1015,1717
7.11.png,5864,3476,arrow,462,1851,573,1996
7.11.png,5864,3476,arrow,551,2210,735,2243
7.11.png,5864,3476,arrow,903,2206,1077,2242
7.11.png,5864,3476,arrow,1087,2206,1268,2239
7.11.png,5864,3476,arrow,3614,2189,3787,2219
7.11.png,5864,3476,arrow,3796,2187,3993,2220
7.11.png,5864,3476,arrow,4147,2184,4318,2215
7.11.png,5864,3476,arrow,4143,2606,4319,2640
7.11.png,5864,3476,arrow,552,2632,732,2665
7.13.png,3713,2273,arrow,1024,781,1080,842
7.13.png,3713,2273,arrow,1003,883,1134,953
7.13.png,3713,2273,arrow,2126,741,2168,808
7.13.png,3713,2273,arrow,2904,773,2919,846
7.13.png,3713,2273,arrow,2907,916,2921,992
7.13.png,3713,2273,arrow,2906,997,2921,1067
7.13.png,3713,2273,arrow,2907,1147,2921,1220
7.13.png,3713,2273,arrow,1014,1566,1083,1581
7.13.png,3713,2273,arrow,1166,1564,1235,1579
7.13.png,3713,2273,arrow,1240,1564,1312,1577
7.13.png,3713,2273,arrow,1931,1558,2003,1571
7.13.png,3713,2273,arrow,2008,1556,2081,1571
7.13.png,3713,2273,arrow,2156,1555,2231,1569
7.13.png,3713,2273,arrow,2159,1786,2232,1799
7.13.png,3713,2273,arrow,1014,1793,1093,1809
7.16.png,3953,2609,arrow,3853,867,3863,915
7.16.png,3953,2609,arrow,3673,867,3683,919
7.16.png,3953,2609,arrow,3303,915,3342,955
7.16.png,3953,2609,arrow,1628,537,1661,592
7.16.png,3953,2609,arrow,1727,696,1762,752
7.16.png,3953,2609,arrow,673,696,729,723
7.16.png,3953,2609,arrow,586,677,636,709
7.16.png,3953,2609,arrow,421,781,471,813
7.16.png,3953,2609,arrow,1120,783,1157,828
7.16.png,3953,2609,arrow,2991,1089,3016,1137
7.16.png,3953,2609,arrow,3673,1123,3686,1178
7.16.png,3953,2609,arrow,3673,1185,3684,1238
7.16.png,3953,2609,arrow,1603,1199,1615,1257
7.16.png,3953,2609,arrow,391,852,441,890
7.16.png,3953,2609,arrow,297,1303,326,1358
7.16.png,3953,2609,arrow,522,1404,569,1442
7.16.png,3953,2609,arrow,607,1496,641,1544
7.16.png,3953,2609,arrow,3675,1445,3685,1498
7.16.png,3953,2609,arrow,3855,1442,3867,1496
7.16.png,3953,2609,arrow,506,1808,564,1821
7.16.png,3953,2609,arrow,764,1808,819,1817
7.16.png,3953,2609,arrow,823,1806,880,1817
7.16.png,3953,2609,arrow,3019,1791,3078,1803
7.16.png,3953,2609,arrow,3084,1790,3142,1802
7.16.png,3953,2609,arrow,3339,1788,3396,1799
7.16.png,3953,2609,arrow,3342,2002,3396,2013
7.16.png,3953,2609,arrow,506,2022,562,2033
7.17.png,3137,1889,arrow,2531,489,2572,533
7.17.png,3137,1889,arrow,569,556,620,592
7.17.png,3137,1889,arrow,799,657,829,710
7.17.png,3137,1889,arrow,2953,1021,2961,1077
7.17.png,3137,1889,arrow,565,1354,616,1365
7.17.png,3137,1889,arrow,822,1352,876,1363
7.17.png,3137,1889,arrow,882,1352,932,1363
7.17.png,3137,1889,arrow,2256,1340,2312,1351
7.17.png,3137,1889,arrow,2318,1340,2371,1351
7.17.png,3137,1889,arrow,2574,1338,2630,1349
7.17.png,3137,1889,arrow,566,1504,624,1515
7.17.png,3137,1889,arrow,2579,1488,2630,1499
7.3.png,4289,3785,arrow,797,458,905,541
7.3.png,4289,3785,arrow,2942,432,3035,523
7.3.png,4289,3785,arrow,3701,513,3727,646
7.3.png,4289,3785,arrow,3949,513,3975,646
7.3.png,4289,3785,arrow,3701,690,3728,837
7.3.png,4289,3785,arrow,3701,843,3727,983
7.3.png,4289,3785,arrow,3703,2048,3729,2219
7.3.png,4289,3785,arrow,3703,2225,3729,2360
7.3.png,4289,3785,arrow,3429,2062,3455,2220
7.3.png,4289,3785,arrow,954,1439,1040,1518
7.3.png,4289,3785,arrow,3427,1388,3454,1531
7.3.png,4289,3785,arrow,3429,1540,3453,1678
7.3.png,4289,3785,arrow,2946,2546,3058,2646
7.3.png,4289,3785,arrow,3705,2398,3731,2554
7.3.png,4289,3785,arrow,3951,2402,3977,2552
7.3.png,4289,3785,arrow,798,2552,909,2638
7.3.png,4289,3785,arrow,907,3006,1040,3033
7.3.png,4289,3785,arrow,767,3216,898,3243
7.3.png,4289,3785,arrow,1049,3214,1174,3241
7.3.png,4289,3785,arrow,1239,3005,1385,3031
7.3.png,4289,3785,arrow,2484,2997,2620,3025
7.3.png,4289,3785,arrow,2816,2996,2954,3025
7.3.png,4289,3785,arrow,2679,3206,2811,3233
7.3.png,4289,3785,arrow,2961,3204,3090,3231
7.3.png,4289,3785,arrow,905,3427,1046,3451
7.3.png,4289,3785,arrow,2824,3418,2954,3443
7.6.png,4721,3385,arrow,571,653,633,705
7.6.png,4721,3385,arrow,964,705,1035,829
7.6.png,4721,3385,arrow,2441,616,2487,669
7.6.png,4721,3385,arrow,3142,623,3154,693
7.6.png,4721,3385,arrow,2822,626,2835,689
7.6.png,4721,3385,arrow,2823,835,2837,905
7.6.png,4721,3385,arrow,2823,912,2837,982
7.6.png,4721,3385,arrow,2827,1983,2843,2048
7.6.png,4721,3385,arrow,2827,2059,2841,2123
7.6.png,4721,3385,arrow,3150,2455,3164,2524
7.6.png,4721,3385,arrow,2830,2460,2843,2526
7.6.png,4721,3385,arrow,2453,2486,2496,2530
7.6.png,4721,3385,arrow,566,2468,628,2509
7.6.png,4721,3385,arrow,604,2878,672,2892
7.6.png,4721,3385,arrow,603,3128,668,3141
7.6.png,4721,3385,arrow,2440,3114,2511,3127
7.6.png,4721,3385,arrow,2440,2862,2510,2875
7.6.png,4721,3385,arrow,1998,2866,2062,2879
7.6.png,4721,3385,arrow,1925,2866,1992,2879
7.6.png,4721,3385,arrow,1117,2874,1186,2885
7.6.png,4721,3385,arrow,1048,2874,1110,2887
76cd564105cddc2ed3a82a9f3adfd544.jpg,449,598,arrow,162,34,190,41
76cd564105cddc2ed3a82a9f3adfd544.jpg,449,598,arrow,217,34,247,41
76cd564105cddc2ed3a82a9f3adfd544.jpg,449,598,arrow,217,77,244,84
76cd564105cddc2ed3a82a9f3adfd544.jpg,449,598,arrow,233,77,261,84
76cd564105cddc2ed3a82a9f3adfd544.jpg,449,598,arrow,161,76,191,83
76cd564105cddc2ed3a82a9f3adfd544.jpg,449,598,arrow,100,76,130,83
76cd564105cddc2ed3a82a9f3adfd544.jpg,449,598,arrow,175,103,182,131
76cd564105cddc2ed3a82a9f3adfd544.jpg,449,598,arrow,176,119,182,148
76cd564105cddc2ed3a82a9f3adfd544.jpg,449,598,arrow,77,103,84,133
76cd564105cddc2ed3a82a9f3adfd544.jpg,449,598,arrow,77,163,84,195
76cd564105cddc2ed3a82a9f3adfd544.jpg,449,598,arrow,275,173,297,195
76cd564105cddc2ed3a82a9f3adfd544.jpg,449,598,arrow,285,183,308,205
76cd564105cddc2ed3a82a9f3adfd544.jpg,449,598,arrow,249,231,283,239
76cd564105cddc2ed3a82a9f3adfd544.jpg,449,598,arrow,420,220,427,249
76cd564105cddc2ed3a82a9f3adfd544.jpg,449,598,arrow,420,255,428,287
76cd564105cddc2ed3a82a9f3adfd544.jpg,449,598,arrow,25,197,33,226
76cd564105cddc2ed3a82a9f3adfd544.jpg,449,598,arrow,26,257,33,287
76cd564105cddc2ed3a82a9f3adfd544.jpg,449,598,arrow,54,320,86,326
76cd564105cddc2ed3a82a9f3adfd544.jpg,449,598,arrow,346,320,377,326
76cd564105cddc2ed3a82a9f3adfd544.jpg,449,598,arrow,314,372,339,397
76cd564105cddc2ed3a82a9f3adfd544.jpg,449,598,arrow,290,397,314,421
76cd564105cddc2ed3a82a9f3adfd544.jpg,449,598,arrow,54,517,85,524
76cd564105cddc2ed3a82a9f3adfd544.jpg,449,598,arrow,171,517,203,524
76cd564105cddc2ed3a82a9f3adfd544.jpg,449,598,arrow,275,511,282,542
76cd564105cddc2ed3a82a9f3adfd544.jpg,449,598,arrow,275,546,282,578
7cbf8e6b6f10669b4b92b986cec3bf6d.jpg,563,797,arrow,335,207,348,211
7cbf8e6b6f10669b4b92b986cec3bf6d.jpg,563,797,arrow,292,202,304,205
7cbf8e6b6f10669b4b92b986cec3bf6d.jpg,563,797,arrow,277,202,290,205
7cbf8e6b6f10669b4b92b986cec3bf6d.jpg,563,797,arrow,338,267,349,273
7cbf8e6b6f10669b4b92b986cec3bf6d.jpg,563,797,arrow,313,282,322,288
7cbf8e6b6f10669b4b92b986cec3bf6d.jpg,563,797,arrow,303,278,311,287
7cbf8e6b6f10669b4b92b986cec3bf6d.jpg,563,797,arrow,155,242,164,250
7cbf8e6b6f10669b4b92b986cec3bf6d.jpg,563,797,arrow,145,252,153,259
7cbf8e6b6f10669b4b92b986cec3bf6d.jpg,563,797,arrow,218,297,222,309
7cbf8e6b6f10669b4b92b986cec3bf6d.jpg,563,797,arrow,154,323,163,330
7cbf8e6b6f10669b4b92b986cec3bf6d.jpg,563,797,arrow,71,379,75,394
7cbf8e6b6f10669b4b92b986cec3bf6d.jpg,563,797,arrow,287,363,293,373
7cbf8e6b6f10669b4b92b986cec3bf6d.jpg,563,797,arrow,253,371,266,374
7cbf8e6b6f10669b4b92b986cec3bf6d.jpg,563,797,arrow,278,376,282,388
7cbf8e6b6f10669b4b92b986cec3bf6d.jpg,563,797,arrow,399,328,411,338
7cbf8e6b6f10669b4b92b986cec3bf6d.jpg,563,797,arrow,426,342,438,349
7cbf8e6b6f10669b4b92b986cec3bf6d.jpg,563,797,arrow,409,387,423,392
7cbf8e6b6f10669b4b92b986cec3bf6d.jpg,563,797,arrow,418,519,428,527
7cbf8e6b6f10669b4b92b986cec3bf6d.jpg,563,797,arrow,299,463,303,474
7cbf8e6b6f10669b4b92b986cec3bf6d.jpg,563,797,arrow,273,398,285,402
7cbf8e6b6f10669b4b92b986cec3bf6d.jpg,563,797,arrow,296,398,311,402
7cbf8e6b6f10669b4b92b986cec3bf6d.jpg,563,797,arrow,240,447,254,455
7cbf8e6b6f10669b4b92b986cec3bf6d.jpg,563,797,arrow,285,435,289,446
7cbf8e6b6f10669b4b92b986cec3bf6d.jpg,563,797,arrow,270,430,280,437
8b41ea1167143c63f2b1877ff69df284.jpg,564,798,arrow,264,164,275,167
8b41ea1167143c63f2b1877ff69df284.jpg,564,798,arrow,291,164,303,167
8b41ea1167143c63f2b1877ff69df284.jpg,564,798,arrow,304,244,315,251
8b41ea1167143c63f2b1877ff69df284.jpg,564,798,arrow,381,294,387,307
8b41ea1167143c63f2b1877ff69df284.jpg,564,798,arrow,292,298,303,305
8b41ea1167143c63f2b1877ff69df284.jpg,564,798,arrow,211,310,221,317
8b41ea1167143c63f2b1877ff69df284.jpg,564,798,arrow,223,256,233,263
8b41ea1167143c63f2b1877ff69df284.jpg,564,798,arrow,169,344,179,352
8b41ea1167143c63f2b1877ff69df284.jpg,564,798,arrow,50,281,54,294
8b41ea1167143c63f2b1877ff69df284.jpg,564,798,arrow,91,386,100,396
8b41ea1167143c63f2b1877ff69df284.jpg,564,798,arrow,50,408,53,421
8b41ea1167143c63f2b1877ff69df284.jpg,564,798,arrow,104,436,112,446
8b41ea1167143c63f2b1877ff69df284.jpg,564,798,arrow,122,510,137,514
8b41ea1167143c63f2b1877ff69df284.jpg,564,798,arrow,148,510,161,514
8b41ea1167143c63f2b1877ff69df284.jpg,564,798,arrow,219,443,224,456
8b41ea1167143c63f2b1877ff69df284.jpg,564,798,arrow,123,575,135,578
8b41ea1167143c63f2b1877ff69df284.jpg,564,798,arrow,274,462,280,474
8b41ea1167143c63f2b1877ff69df284.jpg,564,798,arrow,304,528,318,531
8b41ea1167143c63f2b1877ff69df284.jpg,564,798,arrow,434,528,448,531
8b41ea1167143c63f2b1877ff69df284.jpg,564,798,arrow,434,574,447,578
8b41ea1167143c63f2b1877ff69df284.jpg,564,798,arrow,382,442,387,453
8b41ea1167143c63f2b1877ff69df284.jpg,564,798,arrow,327,435,338,441
8b41ea1167143c63f2b1877ff69df284.jpg,564,798,arrow,269,402,279,409
8b41ea1167143c63f2b1877ff69df284.jpg,564,798,arrow,327,370,332,379
8b41ea1167143c63f2b1877ff69df284.jpg,564,798,arrow,494,312,501,324
8b41ea1167143c63f2b1877ff69df284.jpg,564,798,arrow,521,409,525,421
8b41ea1167143c63f2b1877ff69df284.jpg,564,798,arrow,463,431,473,438
8b41ea1167143c63f2b1877ff69df284.jpg,564,798,arrow,462,452,467,462
auto-cad-tutorial-1-728.jpg,728,1030,arrow,76,176,80,194
auto-cad-tutorial-1-728.jpg,728,1030,arrow,257,209,272,222
auto-cad-tutorial-1-728.jpg,728,1030,arrow,530,227,534,247
auto-cad-tutorial-1-728.jpg,728,1030,arrow,530,259,534,278
auto-cad-tutorial-1-728.jpg,728,1030,arrow,509,227,513,247
auto-cad-tutorial-1-728.jpg,728,1030,arrow,509,251,513,269
auto-cad-tutorial-1-728.jpg,728,1030,arrow,97,227,101,248
auto-cad-tutorial-1-728.jpg,728,1030,arrow,76,303,80,324
auto-cad-tutorial-1-728.jpg,728,1030,arrow,97,290,101,308
auto-cad-tutorial-1-728.jpg,728,1030,arrow,118,269,122,288
auto-cad-tutorial-1-728.jpg,728,1030,arrow,118,327,123,347
auto-cad-tutorial-1-728.jpg,728,1030,arrow,257,314,271,327
auto-cad-tutorial-1-728.jpg,728,1030,arrow,158,473,179,476
auto-cad-tutorial-1-728.jpg,728,1030,arrow,79,574,84,590
auto-cad-tutorial-1-728.jpg,728,1030,arrow,76,595,80,615
auto-cad-tutorial-1-728.jpg,728,1030,arrow,134,580,154,592
auto-cad-tutorial-1-728.jpg,728,1030,arrow,257,579,267,591
auto-cad-tutorial-1-728.jpg,728,1030,arrow,265,493,281,498
auto-cad-tutorial-1-728.jpg,728,1030,arrow,454,473,474,476
auto-cad-tutorial-1-728.jpg,728,1030,arrow,455,494,474,498
auto-cad-tutorial-1-728.jpg,728,1030,arrow,453,515,473,519
auto-cad-tutorial-1-728.jpg,728,1030,arrow,310,515,328,519
auto-cad-tutorial-1-728.jpg,728,1030,arrow,551,555,556,575
auto-cad-tutorial-1-728.jpg,728,1030,arrow,530,556,534,574
auto-cad-tutorial-1-728.jpg,728,1030,arrow,509,555,514,574
auto-cad-tutorial-1-728.jpg,728,1030,arrow,509,570,513,588
auto-cad-tutorial-1-728.jpg,728,1030,arrow,494,622,498,643
auto-cad-tutorial-1-728.jpg,728,1030,arrow,530,623,534,643
auto-cad-tutorial-1-728.jpg,728,1030,arrow,509,704,513,721
auto-cad-tutorial-1-728.jpg,728,1030,arrow,509,718,513,736
auto-cad-tutorial-1-728.jpg,728,1030,arrow,212,657,228,672
auto-cad-tutorial-1-728.jpg,728,1030,arrow,185,741,205,756
auto-cad-tutorial-1-728.jpg,728,1030,arrow,97,722,101,744
auto-cad-tutorial-1-728.jpg,728,1030,arrow,76,866,80,885
auto-cad-tutorial-1-728.jpg,728,1030,arrow,97,865,101,885
auto-cad-tutorial-1-728.jpg,728,1030,arrow,118,867,122,885
auto-cad-tutorial-1-728.jpg,728,1030,arrow,118,849,122,867
auto-cad-tutorial-1-728.jpg,728,1030,arrow,357,819,366,837
auto-cad-tutorial-1-728.jpg,728,1030,arrow,378,921,396,925
auto-cad-tutorial-1-728.jpg,728,1030,arrow,455,921,474,925
auto-cad-tutorial-1-728.jpg,728,1030,arrow,509,852,513,871
auto-cad-tutorial-1-728.jpg,728,1030,arrow,509,866,513,884
auto-cad-tutorial-1-728.jpg,728,1030,arrow,530,798,534,817
auto-cad-tutorial-1-728.jpg,728,1030,arrow,530,864,534,885
auto-cad-tutorial-1-728.jpg,728,1030,arrow,551,867,555,885
autocad-2d-500x500.png,500,418,arrow,393,50,408,64
autocad-2d-500x500.png,500,418,arrow,429,60,436,78
autocad-2d-500x500.png,500,418,arrow,450,115,457,131
autocad-2d-500x500.png,500,418,arrow,479,129,492,142
autocad-2d-500x500.png,500,418,arrow,353,132,366,146
autocad-2d-500x500.png,500,418,arrow,380,251,394,258
autocad-2d-500x500.png,500,418,arrow,282,184,287,201
autocad-2d-500x500.png,500,418,arrow,248,176,256,192
autocad-2d-500x500.png,500,418,arrow,191,214,196,232
autocad-2d-500x500.png,500,418,arrow,136,246,150,257
autocad-2d-500x500.png,500,418,arrow,55,228,68,239
autocad-2d-500x500.png,500,418,arrow,76,294,91,306
autocad-2d-500x500.png,500,418,arrow,114,403,132,408
autocad-2d-500x500.png,500,418,arrow,284,403,302,408
autocad-2d-500x500.png,500,418,arrow,305,403,320,408
autocad-2d-500x500.png,500,418,arrow,324,403,340,407
autocad-2d-500x500.png,500,418,arrow,361,301,379,307
b568e8ff52a231a8804985da517e51c3.png,1653,2339,arrow,1009,601,1045,608
b568e8ff52a231a8804985da517e51c3.png,1653,2339,arrow,622,601,657,608
b568e8ff52a231a8804985da517e51c3.png,1653,2339,arrow,722,735,740,763
b568e8ff52a231a8804985da517e51c3.png,1653,2339,arrow,974,772,991,801
b568e8ff52a231a8804985da517e51c3.png,1653,2339,arrow,1440,914,1446,949
b568e8ff52a231a8804985da517e51c3.png,1653,2339,arrow,1137,967,1164,984
b568e8ff52a231a8804985da517e51c3.png,1653,2339,arrow,870,830,889,859
b568e8ff52a231a8804985da517e51c3.png,1653,2339,arrow,778,968,797,995
b568e8ff52a231a8804985da517e51c3.png,1653,2339,arrow,637,922,665,941
b568e8ff52a231a8804985da517e51c3.png,1653,2339,arrow,577,885,606,903
b568e8ff52a231a8804985da517e51c3.png,1653,2339,arrow,976,1126,1012,1134
b568e8ff52a231a8804985da517e51c3.png,1653,2339,arrow,910,1283,939,1300
b568e8ff52a231a8804985da517e51c3.png,1653,2339,arrow,648,1249,678,1266
b568e8ff52a231a8804985da517e51c3.png,1653,2339,arrow,476,1127,483,1163
b568e8ff52a231a8804985da517e51c3.png,1653,2339,arrow,476,1311,483,1344
b568e8ff52a231a8804985da517e51c3.png,1653,2339,arrow,729,1390,759,1409
b568e8ff52a231a8804985da517e51c3.png,1653,2339,arrow,739,1584,745,1618
b568e8ff52a231a8804985da517e51c3.png,1653,2339,arrow,739,1704,745,1738
b568e8ff52a231a8804985da517e51c3.png,1653,2339,arrow,1081,1737,1098,1769
b568e8ff52a231a8804985da517e51c3.png,1653,2339,arrow,1253,1779,1259,1817
b568e8ff52a231a8804985da517e51c3.png,1653,2339,arrow,1253,1823,1259,1857
b568e8ff52a231a8804985da517e51c3.png,1653,2339,arrow,1328,1824,1334,1856
b568e8ff52a231a8804985da517e51c3.png,1653,2339,arrow,1440,1821,1446,1856
b568e8ff52a231a8804985da517e51c3.png,1653,2339,arrow,1328,1347,1334,1382
b568e8ff52a231a8804985da517e51c3.png,1653,2339,arrow,373,1741,379,1774
b568e8ff52a231a8804985da517e51c3.png,1653,2339,arrow,373,1822,379,1856
b568e8ff52a231a8804985da517e51c3.png,1653,2339,arrow,804,1815,837,1822
b568e8ff52a231a8804985da517e51c3.png,1653,2339,arrow,829,1815,864,1822
b568e8ff52a231a8804985da517e51c3.png,1653,2339,arrow,1111,2019,1147,2025
b568e8ff52a231a8804985da517e51c3.png,1653,2339,arrow,520,2019,554,2025
b80f7a69accbe40d61fa9f51a4c63fff.jpg,564,798,arrow,165,242,178,245
b80f7a69accbe40d61fa9f51a4c63fff.jpg,564,798,arrow,306,242,319,245
b80f7a69accbe40d61fa9f51a4c63fff.jpg,564,798,arrow,359,280,370,288
b80f7a69accbe40d61fa9f51a4c63fff.jpg,564,798,arrow,470,385,483,390
b80f7a69accbe40d61fa9f51a4c63fff.jpg,564,798,arrow,432,367,443,375
b80f7a69accbe40d61fa9f51a4c63fff.jpg,564,798,arrow,398,366,405,378
b80f7a69accbe40d61fa9f51a4c63fff.jpg,564,798,arrow,439,416,449,424
b80f7a69accbe40d61fa9f51a4c63fff.jpg,564,798,arrow,445,421,455,428
b80f7a69accbe40d61fa9f51a4c63fff.jpg,564,798,arrow,115,369,118,381
b80f7a69accbe40d61fa9f51a4c63fff.jpg,564,798,arrow,85,343,89,353
b80f7a69accbe40d61fa9f51a4c63fff.jpg,564,798,arrow,57,315,61,328
b80f7a69accbe40d61fa9f51a4c63fff.jpg,564,798,arrow,115,462,118,475
b80f7a69accbe40d61fa9f51a4c63fff.jpg,564,798,arrow,85,489,88,501
b80f7a69accbe40d61fa9f51a4c63fff.jpg,564,798,arrow,57,515,60,529
b80f7a69accbe40d61fa9f51a4c63fff.jpg,564,798,arrow,164,523,172,532
b80f7a69accbe40d61fa9f51a4c63fff.jpg,564,798,arrow,259,537,268,546
b80f7a69accbe40d61fa9f51a4c63fff.jpg,564,798,arrow,165,617,178,620
b80f7a69accbe40d61fa9f51a4c63fff.jpg,564,798,arrow,259,617,271,620
b80f7a69accbe40d61fa9f51a4c63fff.jpg,564,798,arrow,274,617,286,620
b80f7a69accbe40d61fa9f51a4c63fff.jpg,564,798,arrow,352,617,366,620
b80f7a69accbe40d61fa9f51a4c63fff.jpg,564,798,arrow,368,538,378,545
b80f7a69accbe40d61fa9f51a4c63fff.jpg,564,798,arrow,326,535,335,542
b80f7a69accbe40d61fa9f51a4c63fff.jpg,564,798,arrow,304,517,313,524
bc939e09a8afe03f64d9b25e8205fea2.jpg,564,798,arrow,344,328,353,335
bc939e09a8afe03f64d9b25e8205fea2.jpg,564,798,arrow,312,348,323,356
bc939e09a8afe03f64d9b25e8205fea2.jpg,564,798,arrow,286,371,298,374
bc939e09a8afe03f64d9b25e8205fea2.jpg,564,798,arrow,255,371,269,374
bc939e09a8afe03f64d9b25e8205fea2.jpg,564,798,arrow,288,426,299,431
bc939e09a8afe03f64d9b25e8205fea2.jpg,564,798,arrow,507,387,510,399
bc939e09a8afe03f64d9b25e8205fea2.jpg,564,798,arrow,506,425,510,436
bc939e09a8afe03f64d9b25e8205fea2.jpg,564,798,arrow,461,403,471,409
bc939e09a8afe03f64d9b25e8205fea2.jpg,564,798,arrow,446,423,449,437
bc939e09a8afe03f64d9b25e8205fea2.jpg,564,798,arrow,190,371,200,379
bc939e09a8afe03f64d9b25e8205fea2.jpg,564,798,arrow,212,402,216,413
bc939e09a8afe03f64d9b25e8205fea2.jpg,564,798,arrow,232,417,243,422
bc939e09a8afe03f64d9b25e8205fea2.jpg,564,798,arrow,213,449,216,461
bc939e09a8afe03f64d9b25e8205fea2.jpg,564,798,arrow,255,442,267,448
bc939e09a8afe03f64d9b25e8205fea2.jpg,564,798,arrow,313,452,324,457
bc939e09a8afe03f64d9b25e8205fea2.jpg,564,798,arrow,355,495,365,503
c425a2f663dd3842649150c8b90b207c.jpg,564,798,arrow,435,299,440,309
c425a2f663dd3842649150c8b90b207c.jpg,564,798,arrow,187,338,194,348
c425a2f663dd3842649150c8b90b207c.jpg,564,798,arrow,316,353,329,357
c425a2f663dd3842649150c8b90b207c.jpg,564,798,arrow,374,338,381,349
c425a2f663dd3842649150c8b90b207c.jpg,564,798,arrow,313,371,324,380
c425a2f663dd3842649150c8b90b207c.jpg,564,798,arrow,429,406,434,419
c425a2f663dd3842649150c8b90b207c.jpg,564,798,arrow,337,445,349,451
c425a2f663dd3842649150c8b90b207c.jpg,564,798,arrow,430,607,433,619
c425a2f663dd3842649150c8b90b207c.jpg,564,798,arrow,321,517,333,520
c425a2f663dd3842649150c8b90b207c.jpg,564,798,arrow,235,517,247,520
c425a2f663dd3842649150c8b90b207c.jpg,564,798,arrow,236,553,248,556
c425a2f663dd3842649150c8b90b207c.jpg,564,798,arrow,263,549,275,552
c425a2f663dd3842649150c8b90b207c.jpg,564,798,arrow,274,613,282,619
c425a2f663dd3842649150c8b90b207c.jpg,564,798,arrow,286,621,294,628
c425a2f663dd3842649150c8b90b207c.jpg,564,798,arrow,296,604,304,611
c425a2f663dd3842649150c8b90b207c.jpg,564,798,arrow,264,629,272,635
c425a2f663dd3842649150c8b90b207c.jpg,564,798,arrow,124,406,127,417
c425a2f663dd3842649150c8b90b207c.jpg,564,798,arrow,124,422,127,433
d3c62862a9280b1cc56bd31b3b55616e.jpg,564,774,arrow,199,77,211,87
d3c62862a9280b1cc56bd31b3b55616e.jpg,564,774,arrow,223,109,235,120
d3c62862a9280b1cc56bd31b3b55616e.jpg,564,774,arrow,173,99,190,103
d3c62862a9280b1cc56bd31b3b55616e.jpg,564,774,arrow,90,128,105,142
d3c62862a9280b1cc56bd31b3b55616e.jpg,564,774,arrow,48,94,53,113
d3c62862a9280b1cc56bd31b3b55616e.jpg,564,774,arrow,200,189,208,208
d3c62862a9280b1cc56bd31b3b55616e.jpg,564,774,arrow,96,204,114,211
d3c62862a9280b1cc56bd31b3b55616e.jpg,564,774,arrow,88,228,100,239
d3c62862a9280b1cc56bd31b3b55616e.jpg,564,774,arrow,78,236,91,247
d3c62862a9280b1cc56bd31b3b55616e.jpg,564,774,arrow,48,218,53,235
d3c62862a9280b1cc56bd31b3b55616e.jpg,564,774,arrow,144,220,154,231
d3c62862a9280b1cc56bd31b3b55616e.jpg,564,774,arrow,118,244,131,256
d3c62862a9280b1cc56bd31b3b55616e.jpg,564,774,arrow,172,267,179,285
d3c62862a9280b1cc56bd31b3b55616e.jpg,564,774,arrow,261,224,266,237
d3c62862a9280b1cc56bd31b3b55616e.jpg,564,774,arrow,287,200,302,206
d3c62862a9280b1cc56bd31b3b55616e.jpg,564,774,arrow,292,243,302,255
d3c62862a9280b1cc56bd31b3b55616e.jpg,564,774,arrow,394,73,411,78
d3c62862a9280b1cc56bd31b3b55616e.jpg,564,774,arrow,442,73,459,78
d3c62862a9280b1cc56bd31b3b55616e.jpg,564,774,arrow,403,88,419,92
d3c62862a9280b1cc56bd31b3b55616e.jpg,564,774,arrow,432,88,448,92
d3c62862a9280b1cc56bd31b3b55616e.jpg,564,774,arrow,504,135,510,151
d3c62862a9280b1cc56bd31b3b55616e.jpg,564,774,arrow,418,168,424,185
d3c62862a9280b1cc56bd31b3b55616e.jpg,564,774,arrow,376,160,395,166
d3c62862a9280b1cc56bd31b3b55616e.jpg,564,774,arrow,379,203,392,214
d3c62862a9280b1cc56bd31b3b55616e.jpg,564,774,arrow,394,227,410,235
d3c62862a9280b1cc56bd31b3b55616e.jpg,564,774,arrow,460,184,470,194
d3c62862a9280b1cc56bd31b3b55616e.jpg,564,774,arrow,441,204,447,223
d3c62862a9280b1cc56bd31b3b55616e.jpg,564,774,arrow,504,180,509,195
d3c62862a9280b1cc56bd31b3b55616e.jpg,564,774,arrow,504,198,510,215
d3c62862a9280b1cc56bd31b3b55616e.jpg,564,774,arrow,505,257,510,274
d3c62862a9280b1cc56bd31b3b55616e.jpg,564,774,arrow,433,267,452,274
d3c62862a9280b1cc56bd31b3b55616e.jpg,564,774,arrow,443,244,461,251
d3c62862a9280b1cc56bd31b3b55616e.jpg,564,774,arrow,437,235,455,240
d3c62862a9280b1cc56bd31b3b55616e.jpg,564,774,arrow,399,235,416,240
d3c62862a9280b1cc56bd31b3b55616e.jpg,564,774,arrow,411,253,427,257
d3c62862a9280b1cc56bd31b3b55616e.jpg,564,774,arrow,424,253,441,258
d3c62862a9280b1cc56bd31b3b55616e.jpg,564,774,arrow,377,263,382,275
d3c62862a9280b1cc56bd31b3b55616e.jpg,564,774,arrow,377,273,382,288
d3c62862a9280b1cc56bd31b3b55616e.jpg,564,774,arrow,377,295,382,312
d3c62862a9280b1cc56bd31b3b55616e.jpg,564,774,arrow,420,296,427,310
d3c62862a9280b1cc56bd31b3b55616e.jpg,564,774,arrow,401,277,421,284
d3c62862a9280b1cc56bd31b3b55616e.jpg,564,774,arrow,238,324,257,330
d3c62862a9280b1cc56bd31b3b55616e.jpg,564,774,arrow,120,323,141,329
d3c62862a9280b1cc56bd31b3b55616e.jpg,564,774,arrow,146,381,156,388
d3c62862a9280b1cc56bd31b3b55616e.jpg,564,774,arrow,166,378,177,390
d3c62862a9280b1cc56bd31b3b55616e.jpg,564,774,arrow,170,398,183,407
d3c62862a9280b1cc56bd31b3b55616e.jpg,564,774,arrow,58,407,64,423
d3c62862a9280b1cc56bd31b3b55616e.jpg,564,774,arrow,219,435,227,451
d3c62862a9280b1cc56bd31b3b55616e.jpg,564,774,arrow,194,448,206,460
d3c62862a9280b1cc56bd31b3b55616e.jpg,564,774,arrow,206,469,213,481
d3c62862a9280b1cc56bd31b3b55616e.jpg,564,774,arrow,128,464,134,483
d3c62862a9280b1cc56bd31b3b55616e.jpg,564,774,arrow,127,498,134,516
d3c62862a9280b1cc56bd31b3b55616e.jpg,564,774,arrow,119,520,132,532
d3c62862a9280b1cc56bd31b3b55616e.jpg,564,774,arrow,285,397,290,415
d3c62862a9280b1cc56bd31b3b55616e.jpg,564,774,arrow,284,473,289,490
d3c62862a9280b1cc56bd31b3b55616e.jpg,564,774,arrow,59,555,64,570
d3c62862a9280b1cc56bd31b3b55616e.jpg,564,774,arrow,106,590,118,597
d3c62862a9280b1cc56bd31b3b55616e.jpg,564,774,arrow,73,606,85,612
d3c62862a9280b1cc56bd31b3b55616e.jpg,564,774,arrow,76,634,94,643
d3c62862a9280b1cc56bd31b3b55616e.jpg,564,774,arrow,135,622,141,636
d3c62862a9280b1cc56bd31b3b55616e.jpg,564,774,arrow,138,654,160,661
d3c62862a9280b1cc56bd31b3b55616e.jpg,564,774,arrow,162,655,178,660
d3c62862a9280b1cc56bd31b3b55616e.jpg,564,774,arrow,198,594,204,613
d3c62862a9280b1cc56bd31b3b55616e.jpg,564,774,arrow,235,562,254,568
d3c62862a9280b1cc56bd31b3b55616e.jpg,564,774,arrow,229,605,246,612
d3c62862a9280b1cc56bd31b3b55616e.jpg,564,774,arrow,225,638,245,645
d3c62862a9280b1cc56bd31b3b55616e.jpg,564,774,arrow,362,586,380,602
d3c62862a9280b1cc56bd31b3b55616e.jpg,564,774,arrow,429,570,446,584
d3c62862a9280b1cc56bd31b3b55616e.jpg,564,774,arrow,370,546,378,555
d3c62862a9280b1cc56bd31b3b55616e.jpg,564,774,arrow,348,542,364,552
d3c62862a9280b1cc56bd31b3b55616e.jpg,564,774,arrow,492,537,497,554
d3c62862a9280b1cc56bd31b3b55616e.jpg,564,774,arrow,492,474,498,492
d3c62862a9280b1cc56bd31b3b55616e.jpg,564,774,arrow,450,506,463,518
d3c62862a9280b1cc56bd31b3b55616e.jpg,564,774,arrow,404,470,415,481
d3c62862a9280b1cc56bd31b3b55616e.jpg,564,774,arrow,412,463,424,472
d3c62862a9280b1cc56bd31b3b55616e.jpg,564,774,arrow,424,462,438,467
d3c62862a9280b1cc56bd31b3b55616e.jpg,564,774,arrow,396,433,408,441
d3c62862a9280b1cc56bd31b3b55616e.jpg,564,774,arrow,404,418,413,428
d3c62862a9280b1cc56bd31b3b55616e.jpg,564,774,arrow,418,415,429,424
d3c62862a9280b1cc56bd31b3b55616e.jpg,564,774,arrow,383,443,395,452
d3c62862a9280b1cc56bd31b3b55616e.jpg,564,774,arrow,354,454,360,471
d3c62862a9280b1cc56bd31b3b55616e.jpg,564,774,arrow,354,429,361,446
d56cb8ba4e7cb40a02722d585876e042.jpg,564,798,arrow,343,266,354,269
d56cb8ba4e7cb40a02722d585876e042.jpg,564,798,arrow,320,322,334,325
d56cb8ba4e7cb40a02722d585876e042.jpg,564,798,arrow,243,321,258,325
d56cb8ba4e7cb40a02722d585876e042.jpg,564,798,arrow,205,319,213,328
d56cb8ba4e7cb40a02722d585876e042.jpg,564,798,arrow,307,344,313,355
d56cb8ba4e7cb40a02722d585876e042.jpg,564,798,arrow,422,337,426,349
d56cb8ba4e7cb40a02722d585876e042.jpg,564,798,arrow,319,413,329,420
d56cb8ba4e7cb40a02722d585876e042.jpg,564,798,arrow,252,382,265,388
d56cb8ba4e7cb40a02722d585876e042.jpg,564,798,arrow,207,389,210,400
d56cb8ba4e7cb40a02722d585876e042.jpg,564,798,arrow,207,401,210,412
d56cb8ba4e7cb40a02722d585876e042.jpg,564,798,arrow,269,446,274,457
d56cb8ba4e7cb40a02722d585876e042.jpg,564,798,arrow,174,492,183,500
d56cb8ba4e7cb40a02722d585876e042.jpg,564,798,arrow,282,530,291,541
d56cb8ba4e7cb40a02722d585876e042.jpg,564,798,arrow,266,531,277,536
d56cb8ba4e7cb40a02722d585876e042.jpg,564,798,arrow,292,543,300,552
d56cb8ba4e7cb40a02722d585876e042.jpg,564,798,arrow,306,547,316,551
d56cb8ba4e7cb40a02722d585876e042.jpg,564,798,arrow,255,577,263,585
file 1_5.png,2752,1936,arrow,538,778,646,797
file 1_5.png,2752,1936,arrow,841,777,947,797
file 1_5.png,2752,1936,arrow,397,1041,417,1134
file 1_5.png,2752,1936,arrow,398,1313,416,1404
file 1_5.png,2752,1936,arrow,1019,1368,1110,1422
file 1_5.png,2752,1936,arrow,1620,1364,1681,1407
file 1_5.png,2752,1936,arrow,2021,1379,2099,1451
file 1_5.png,2752,1936,arrow,1939,879,2039,895
file 1_5.png,2752,1936,arrow,1102,881,1211,900
file 6_5.png,4537,3761,arrow,839,903,947,925
file 6_5.png,4537,3761,arrow,1264,899,1364,919
file 6_5.png,4537,3761,arrow,1370,900,1473,918
file 6_5.png,4537,3761,arrow,2005,895,2109,911
file 6_5.png,4537,3761,arrow,2114,892,2210,911
file 6_5.png,4537,3761,arrow,2544,890,2636,909
file 6_5.png,4537,3761,arrow,2923,1114,2941,1220
file 6_5.png,4537,3761,arrow,842,1368,943,1384
file 6_5.png,4537,3761,arrow,1041,1366,1144,1383
file 6_5.png,4537,3761,arrow,2543,1352,2640,1371
file 6_5.png,4537,3761,arrow,2340,1354,2441,1373
file 6_5.png,4537,3761,arrow,2927,1632,2945,1734
file 6_5.png,4537,3761,arrow,845,1948,951,1967
file 6_5.png,4537,3761,arrow,2549,1932,2641,1951
file 6_5.png,4537,3761,arrow,2627,2284,2679,2357
file 6_5.png,4537,3761,arrow,2550,2466,2652,2523
file 6_5.png,4537,3761,arrow,799,2302,863,2377
file 6_5.png,4537,3761,arrow,585,2265,605,2366
file 6_5.png,4537,3761,arrow,359,2378,377,2478
file 6_5.png,4537,3761,arrow,585,2464,605,2564
file 6_5.png,4537,3761,arrow,586,2573,605,2663
file 6_5.png,4537,3761,arrow,361,2664,379,2765
file 6_5.png,4537,3761,arrow,586,2770,607,2869
file 6_5.png,4537,3761,arrow,816,2760,872,2848
file 6_5.png,4537,3761,arrow,2632,2740,2690,2813
file 6_5.png,4537,3761,arrow,2656,3286,2757,3305
file 6_5.png,4537,3761,arrow,2419,3290,2515,3307
file 6_5.png,4537,3761,arrow,989,3302,1081,3321
file 6_5.png,4537,3761,arrow,757,3303,847,3323
file 6_5.png,4537,3761,arrow,856,3598,953,3618
file 6_5.png,4537,3761,arrow,2555,3584,2651,3601
Fusion 360 Image.jpg,916,592,arrow,283,100,291,109
Fusion 360 Image.jpg,916,592,arrow,239,141,250,153
Fusion 360 Image.jpg,916,592,arrow,198,157,212,162
Fusion 360 Image.jpg,916,592,arrow,137,158,149,162
Fusion 360 Image.jpg,916,592,arrow,473,160,483,170
Fusion 360 Image.jpg,916,592,arrow,469,246,483,251
Fusion 360 Image.jpg,916,592,arrow,409,258,423,263
Fusion 360 Image.jpg,916,592,arrow,287,266,294,290
Fusion 360 Image.jpg,916,592,arrow,143,251,156,255
Fusion 360 Image.jpg,916,592,arrow,137,251,150,256
Fusion 360 Image.jpg,916,592,arrow,105,293,109,306
Fusion 360 Image.jpg,916,592,arrow,106,302,109,316
Fusion 360 Image.jpg,916,592,arrow,158,321,166,336
Fusion 360 Image.jpg,916,592,arrow,84,266,90,290
G0604P01S_2.jpg,1600,1131,arrow,378,198,397,217
G0604P01S_2.jpg,1600,1131,arrow,456,251,474,269
G0604P01S_2.jpg,1600,1131,arrow,830,145,845,164
G0604P01S_2.jpg,1600,1131,arrow,712,147,726,170
G0604P01S_2.jpg,1600,1131,arrow,1129,152,1138,178
G0604P01S_2.jpg,1600,1131,arrow,1265,106,1289,114
G0604P01S_2.jpg,1600,1131,arrow,1474,306,1481,329
G0604P01S_2.jpg,1600,1131,arrow,1481,332,1488,357
G0604P01S_2.jpg,1600,1131,arrow,1489,387,1495,413
G0604P01S_2.jpg,1600,1131,arrow,1401,449,1429,458
G0604P01S_2.jpg,1600,1131,arrow,1198,506,1221,513
G0604P01S_2.jpg,1600,1131,arrow,1067,355,1076,382
G0604P01S_2.jpg,1600,1131,arrow,917,434,944,441
G0604P01S_2.jpg,1600,1131,arrow,976,333,991,353
G0604P01S_2.jpg,1600,1131,arrow,596,333,610,355
G0604P01S_2.jpg,1600,1131,arrow,799,353,818,374
G0604P01S_2.jpg,1600,1131,arrow,651,434,680,441
G0604P01S_2.jpg,1600,1131,arrow,147,579,172,584
G0604P01S_2.jpg,1600,1131,arrow,480,579,503,584
G0604P01S_2.jpg,1600,1131,arrow,871,577,898,585
G0604P01S_2.jpg,1600,1131,arrow,755,608,781,617
G0604P01S_2.jpg,1600,1131,arrow,1001,676,1010,700
G0604P01S_2.jpg,1600,1131,arrow,1262,574,1286,585
G0604P01S_2.jpg,1600,1131,arrow,1410,634,1436,645
G0604P01S_2.jpg,1600,1131,arrow,1460,661,1475,683
G0604P01S_2.jpg,1600,1131,arrow,1472,703,1479,726
G0604P01S_2.jpg,1600,1131,arrow,1437,751,1455,768
G0604P01S_2.jpg,1600,1131,arrow,1299,879,1319,896
G0604P01S_2.jpg,1600,1131,arrow,1282,792,1301,806
G0604P01S_2.jpg,1600,1131,arrow,1229,905,1254,910
G0604P01S_2.jpg,1600,1131,arrow,1095,905,1118,910
G0604P01S_2.jpg,1600,1131,arrow,1189,824,1196,849
G0604P01S_2.jpg,1600,1131,arrow,1015,762,1020,788
G0604P01S_2.jpg,1600,1131,arrow,626,882,635,909
G0604P01S_2.jpg,1600,1131,arrow,580,711,587,734
G0604P01S_2.jpg,1600,1131,arrow,104,693,110,716
G0604P01S_2.jpg,1600,1131,arrow,104,731,110,756
G0604P01S_2.jpg,1600,1131,arrow,377,839,402,864
G0604P01S_2.jpg,1600,1131,arrow,455,841,463,878
G0604P01S_2.jpg,1600,1131,arrow,407,923,431,929
G0604P01S_2.jpg,1600,1131,arrow,327,923,350,929
G0604P01S_2.jpg,1600,1131,arrow,299,923,323,929
G0604P01S_2.jpg,1600,1131,arrow,147,923,171,929
iasaiubt26hh.png,663,625,arrow,206,182,235,231
iasaiubt26hh.png,663,625,arrow,302,162,352,187
iasaiubt26hh.png,663,625,arrow,386,203,437,230
iasaiubt26hh.png,663,625,arrow,143,289,172,342
iasaiubt26hh.png,663,625,arrow,252,349,283,403
iasaiubt26hh.png,663,625,arrow,183,474,212,523
images.png,225,225,arrow,12,7,16,20
images.png,225,225,arrow,12,29,16,42
images.png,225,225,arrow,88,12,101,16
images.png,225,225,arrow,133,12,148,16
images.png,225,225,arrow,207,21,210,35
images.png,225,225,arrow,206,22,210,35
images.png,225,225,arrow,130,43,146,46
images.png,225,225,arrow,89,43,104,46
images.png,225,225,arrow,93,65,108,69
images.png,225,225,arrow,131,66,144,69
images.png,225,225,arrow,123,121,136,124
images.png,225,225,arrow,146,121,157,124
images.png,225,225,arrow,91,129,103,131
images.png,225,225,arrow,92,145,106,148
images.png,225,225,arrow,133,145,147,148
images.png,225,225,arrow,137,175,151,179
images.png,225,225,arrow,88,176,103,179
images.png,225,225,arrow,97,218,111,221
q1.jpg,621,505,arrow,18,26,24,52
q1.jpg,621,505,arrow,104,23,129,29
q1.jpg,621,505,arrow,18,82,25,106
q1.jpg,621,505,arrow,60,82,66,108
q1.jpg,621,505,arrow,432,23,456,29
q1.jpg,621,505,arrow,455,78,472,95
q1.jpg,621,505,arrow,433,84,446,105
q1.jpg,621,505,arrow,143,147,162,160
q1.jpg,621,505,arrow,151,182,171,191
q1.jpg,621,505,arrow,253,188,279,196
q1.jpg,621,505,arrow,230,230,253,238
q1.jpg,621,505,arrow,59,217,66,242
q1.jpg,621,505,arrow,59,245,66,269
q1.jpg,621,505,arrow,319,206,332,226
q1.jpg,621,505,arrow,427,247,444,265
q1.jpg,621,505,arrow,498,255,519,277
q1.jpg,621,505,arrow,308,264,332,270
q1.jpg,621,505,arrow,361,264,385,271
q1.jpg,621,505,arrow,481,314,502,329
q1.jpg,621,505,arrow,442,269,448,292
q1.jpg,621,505,arrow,442,296,448,319
q1.jpg,621,505,arrow,416,327,442,337
q1.jpg,621,505,arrow,462,358,489,364
q1.jpg,621,505,arrow,523,358,548,364
q1.jpg,621,505,arrow,473,377,479,402
q1.jpg,621,505,arrow,610,268,617,294
q1.jpg,621,505,arrow,610,376,616,402
q1.jpg,621,505,arrow,471,422,497,429
q1.jpg,621,505,arrow,402,423,426,429
q1.jpg,621,505,arrow,374,423,399,429
q1.jpg,621,505,arrow,334,423,358,428
q1.jpg,621,505,arrow,253,386,279,392
q1.jpg,621,505,arrow,228,386,252,392
q1.jpg,621,505,arrow,175,343,193,361
q1.jpg,621,505,arrow,185,334,202,351
q1.jpg,621,505,arrow,135,318,152,336
q1.jpg,621,505,arrow,131,339,156,348
q1.jpg,621,505,arrow,120,376,139,397
q1.jpg,621,505,arrow,60,374,65,402
q1.jpg,621,505,arrow,40,404,46,427
q1.jpg,621,505,arrow,40,419,46,443
q1.jpg,621,505,arrow,80,485,105,491
q1.jpg,621,505,arrow,254,485,279,492
q1.jpg,621,505,arrow,281,486,306,491
q1.jpg,621,505,arrow,525,485,550,492
sd1.png,604,458,arrow,511,24,539,30
sd1.png,604,458,arrow,457,24,483,29
sd1.png,604,458,arrow,441,45,467,51
sd1.png,604,458,arrow,112,45,137,51
sd1.png,604,458,arrow,57,88,78,105
sd1.png,604,458,arrow,56,166,76,180
sd1.png,604,458,arrow,195,131,217,147
sd1.png,604,458,arrow,249,103,266,120
sd1.png,604,458,arrow,281,135,297,151
sd1.png,604,458,arrow,335,146,351,165
sd1.png,604,458,arrow,247,187,260,211
sd1.png,604,458,arrow,262,247,288,258
sd1.png,604,458,arrow,566,93,572,119
sd1.png,604,458,arrow,566,174,572,200
sd1.png,604,458,arrow,429,118,435,143
sd1.png,604,458,arrow,429,134,435,157
sd1.png,604,458,arrow,566,203,571,229
sd1.png,604,458,arrow,566,228,572,255
sd1.png,604,458,arrow,566,258,572,285
sd1.png,604,458,arrow,566,366,572,392
sd1.png,604,458,arrow,257,325,282,333
sd1.png,604,458,arrow,148,335,173,342
sd1.png,604,458,arrow,58,372,79,388
sd1.png,604,458,arrow,126,428,150,433
sd1.png,604,458,arrow,179,427,207,433
sd1.png,604,458,arrow,209,427,233,433
sd1.png,604,458,arrow,345,427,370,433
